<?xml version="1.0" encoding="UTF-8" standalone="no"?>
<svg width="1162px" height="1310px" viewBox="0 0 1162 1310" version="1.1" xmlns="http://www.w3.org/2000/svg" xmlns:xlink="http://www.w3.org/1999/xlink">
    <!-- Generator: Sketch 42 (36781) - http://www.bohemiancoding.com/sketch -->
    <title>contacts-figures</title>
    <desc>Created with Sketch.</desc>
    <defs></defs>
    <g id="Page-1" stroke="none" stroke-width="1" fill="none" fill-rule="evenodd">
        <g id="Contact-us" transform="translate(-59.000000, -148.000000)">
            <g id="contacts-figures" transform="translate(-189.000000, 129.000000)">
                <g id="figures" transform="translate(1491.500000, 326.500000) scale(-1, 1) translate(-1491.500000, -326.500000) translate(1052.000000, 0.000000)">
                    <ellipse id="Oval-5" stroke="#FEC92A" stroke-width="2" cx="569.318996" cy="307.572464" rx="29.9641577" ry="29.968599"></ellipse>
                    <polygon id="Polygon-2" stroke="#FFFFFF" stroke-width="2" transform="translate(826.079576, 351.809462) rotate(22.000000) translate(-826.079576, -351.809462) " points="826.079576 316.320331 868.418597 387.298592 783.740556 387.298592"></polygon>
                    <polygon id="Polygon-2" fill="#C03C54" transform="translate(545.663082, 58.359903) rotate(-25.000000) translate(-545.663082, -58.359903) " points="545.663082 15.7729469 592.099427 100.94686 499.226738 100.94686"></polygon>
                    <rect id="Rectangle-12" fill="#FEC92A" transform="translate(585.089606, 544.166667) rotate(22.000000) translate(-585.089606, -544.166667) " x="550.394265" y="509.466184" width="69.390681" height="69.4009662"></rect>
                </g>
                <g id="figures-copy" transform="translate(706.000000, 1018.000000) scale(-1, 1) translate(-706.000000, -1018.000000) translate(0.000000, 707.000000)">
                    <ellipse id="Oval-5" stroke="#FFFFFF" cx="744.238351" cy="583.511207" rx="37.7616487" ry="37.7672458"></ellipse>
                    <ellipse id="Oval-5" stroke="#C03C54" cx="148.272401" cy="36.2777778" rx="36.2724014" ry="36.2777778"></ellipse>
                    <ellipse id="Oval-5" stroke="#FEC92A" stroke-width="2" cx="1102.319" cy="307.572464" rx="29.9641577" ry="29.968599"></ellipse>
                    <polygon id="Polygon-2" fill="#C03C54" transform="translate(1078.663082, 58.359903) rotate(-25.000000) translate(-1078.663082, -58.359903) " points="1078.66308 15.7729469 1125.09943 100.94686 1032.22674 100.94686"></polygon>
                    <polygon id="Polygon-2" stroke="#FEC92A" transform="translate(33.936010, 170.682594) rotate(-170.000000) translate(-33.936010, -170.682594) " points="33.9360092 145.840203 63.983056 195.524986 3.88896308 195.524986"></polygon>
                    <rect id="Rectangle-12" fill="#FEC92A" transform="translate(1118.089606, 544.166667) rotate(22.000000) translate(-1118.089606, -544.166667) " x="1083.39427" y="509.466184" width="69.390681" height="69.4009662"></rect>
                </g>
            </g>
        </g>
    </g>
</svg>